acls:
  enable: false
  modify_groups: []
  modify_users: []
  ui_users: []
  view_groups: []
  view_users: []
file_systems: []
master:
  env:
    SPARK_CONF_DIR: /etc/spark3/conf
    SPARK_HOME: /usr/lib/spark3
  files:
    airflow.keytab:
      size: 0
      source: file:///pytest/path/to/airflow.keytab
      timestamp: 0
      type: FILE
      visibility: APPLICATION
  log_level: INFO
  resources:
    fpgas: 0
    gpus: 0
    memory: 4096
    vcores: 1
  script: spark3-submit --driver-cores 2 --conf spark.executorEnv.SPARK_HOME=/usr/lib/spark3
    --conf spark.executorEnv.SPARK_CONF_DIR=/etc/spark3/conf --master yarn --conf
    spark.dynamicAllocation.enabled=true --conf spark.dynamicAllocation.maxExecutors=1
    --conf spark.shuffle.service.enabled=true --conf spark.yarn.maxAppAttempts=1 --conf
    spark.yarn.appMasterEnv.SPARK_CONF_DIR=/etc/spark3/conf --conf spark.yarn.appMasterEnv.SPARK_HOME=/usr/lib/spark3
    --executor-cores 8 --executor-memory 16g --driver-memory 2g --keytab airflow.keytab
    --principal airflow --name process_sparql_query_hourly__extract_queries__20210601
    --class org.wikidata.query.rdf.spark.transform.queries.sparql.QueryExtractor --queue
    production --deploy-mode cluster hdfs:///wmf/cache/artifacts/airflow/search/rdf-spark-tools-0.3.121-jar-with-dependencies.jar
    --input-table event.wdqs_external_sparql_query/year=2021/month=6/day=1/hour=2
    --output-table discovery.processed_external_sparql_query/year=2021/month=6/day=1/hour=2/wiki=wikidata
max_attempts: 1
name: Airflow SparkSkeinSubmitHook skein launcher process_sparql_query_hourly__extract_queries__20210601
node_label: ''
queue: production
services: {}
tags: []
user: ''
