acls:
  enable: false
  modify_groups: []
  modify_users: []
  ui_users: []
  view_groups: []
  view_users: []
file_systems: []
master:
  env:
    SPARK_CONF_DIR: /etc/spark3/conf
    SPARK_HOME: /usr/lib/spark3
  files:
    airflow.keytab:
      size: 0
      source: file:///pytest/path/to/airflow.keytab
      timestamp: 0
      type: FILE
      visibility: APPLICATION
  log_level: INFO
  resources:
    fpgas: 0
    gpus: 0
    memory: 3815
    vcores: 2
  script: spark3-submit --driver-cores 2 --conf spark.executorEnv.SPARK_HOME=/usr/lib/spark3
    --conf spark.executorEnv.SPARK_CONF_DIR=/etc/spark3/conf --master yarn --conf
    spark.dynamicAllocation.enabled=true --conf spark.dynamicAllocation.maxExecutors=16
    --conf spark.shuffle.service.enabled=true --conf spark.yarn.maxAppAttempts=1 --conf
    spark.yarn.appMasterEnv.SPARK_CONF_DIR=/etc/spark3/conf --conf spark.yarn.appMasterEnv.SPARK_HOME=/usr/lib/spark3
    --executor-cores 2 --executor-memory 4G --driver-memory 4G --keytab airflow.keytab
    --principal airflow --name virtualpageview_hourly__load_virtualpageview_hourly__20230327
    --class org.apache.spark.sql.hive.thriftserver.WMFSparkSQLCLIDriver --queue production
    --deploy-mode client hdfs:///wmf/cache/artifacts/airflow/analytics/wmf-sparksqlclidriver-1.0.0.jar
    -f hdfs://analytics-hadoop/wmf/refinery/current/hql/virtualpageview/virtualpageview_hourly.hql
    -d source_table=event.virtualpageview -d destination_table=wmf.virtualpageview_hourly
    -d refinery_hive_jar=hdfs:///wmf/cache/artifacts/airflow/analytics/refinery-hive-0.2.1-shaded.jar
    -d record_version=0.0.1 -d allowlist_table=wmf.pageview_allowlist -d coalesce_partitions=2
    -d year=2023 -d month=3 -d day=27 -d hour=1
max_attempts: 1
name: Airflow SparkSkeinSubmitHook skein launcher virtualpageview_hourly__load_virtualpageview_hourly__20230327
node_label: ''
queue: production
services: {}
tags: []
user: ''
