acls:
  enable: false
  modify_groups: []
  modify_users: []
  ui_users: []
  view_groups: []
  view_users: []
file_systems: []
master:
  env:
    SPARK_CONF_DIR: /etc/spark3/conf
    SPARK_HOME: /usr/lib/spark3
  files:
    airflow.keytab:
      size: 0
      source: file:///pytest/path/to/airflow.keytab
      timestamp: 0
      type: FILE
      visibility: APPLICATION
  log_level: INFO
  resources:
    fpgas: 0
    gpus: 0
    memory: 954
    vcores: 1
  script: spark3-submit --driver-cores 1 --master local --conf spark.dynamicAllocation.enabled=true
    --conf spark.dynamicAllocation.maxExecutors=16 --conf spark.shuffle.service.enabled=true
    --conf spark.yarn.maxAppAttempts=1 --executor-cores 2 --executor-memory 4G --driver-memory
    1G --keytab airflow.keytab --principal airflow --name druid_load_pageviews_hourly__remove_temporary_table__20230401
    --class org.apache.spark.sql.hive.thriftserver.WMFSparkSQLCLIDriver --queue production
    --deploy-mode client hdfs:///wmf/cache/artifacts/airflow/analytics/wmf-sparksqlclidriver-1.0.0.jar
    -e 'DROP TABLE IF EXISTS wmf.tmp_druid_load_pageviews_hourly_2023040101;'
max_attempts: 1
name: Airflow SparkSkeinSubmitHook skein launcher druid_load_pageviews_hourly__remove_temporary_table__20230401
node_label: ''
queue: production
services: {}
tags: []
user: ''
