acls:
  enable: false
  modify_groups: []
  modify_users: []
  ui_users: []
  view_groups: []
  view_users: []
file_systems: []
master:
  env:
    PYSPARK_DRIVER_PYTHON: venv/bin/python
    PYSPARK_PYTHON: venv/bin/python
    SPARK_CONF_DIR: /etc/spark3/conf
    SPARK_HOME: /usr/lib/spark3
  files:
    airflow.keytab:
      size: 0
      source: file:///pytest/path/to/airflow.keytab
      timestamp: 0
      type: FILE
      visibility: APPLICATION
    venv:
      size: 0
      source: hdfs:///wmf/cache/artifacts/airflow/analytics/mediawiki-content-dump-0.1.0.dev0-pyspark.conda.tgz
      timestamp: 0
      type: ARCHIVE
      visibility: APPLICATION
  log_level: INFO
  resources:
    fpgas: 0
    gpus: 0
    memory: 15259
    vcores: 2
  script: spark3-submit --driver-cores 2 --conf spark.executorEnv.PYSPARK_DRIVER_PYTHON=venv/bin/python
    --conf spark.executorEnv.PYSPARK_PYTHON=venv/bin/python --conf spark.executorEnv.SPARK_HOME=/usr/lib/spark3
    --conf spark.executorEnv.SPARK_CONF_DIR=/etc/spark3/conf --master yarn --conf
    spark.dynamicAllocation.maxExecutors=64 --conf spark.driver.extraJavaOptions=-Xss4m
    --conf spark.yarn.appMasterEnv.SPARK_CONF_DIR=/etc/spark3/conf --conf spark.yarn.appMasterEnv.SPARK_HOME=/usr/lib/spark3
    --conf spark.yarn.appMasterEnv.PYSPARK_PYTHON=venv/bin/python --conf spark.yarn.appMasterEnv.PYSPARK_DRIVER_PYTHON=venv/bin/python
    --archives 'hdfs:///wmf/cache/artifacts/airflow/analytics/mediawiki-content-dump-0.1.0.dev0-pyspark.conda.tgz#venv'
    --executor-cores 2 --executor-memory 8G --driver-memory 16G --keytab airflow.keytab
    --principal airflow --name page_content_change_to_wikitext_raw__spark_merge_into__20230309
    --queue production --deploy-mode client venv/lib/python3.11/site-packages/mediawiki_content_dump/merge_into.py
    event.rc1_mediawiki_page_content_change wmf_dumps.wikitext_raw_rc0 2023 3 9 1
max_attempts: 1
name: Airflow SparkSkeinSubmitHook skein launcher page_content_change_to_wikitext_raw__spark_merge_into__20230309
node_label: ''
queue: production
services: {}
tags: []
user: ''
