acls:
  enable: false
  modify_groups: []
  modify_users: []
  ui_users: []
  view_groups: []
  view_users: []
file_systems: []
master:
  env: {}
  files:
    airflow.keytab:
      size: 0
      source: file:///pytest/path/to/airflow.keytab
      timestamp: 0
      type: FILE
      visibility: APPLICATION
    hdfs_tools_shaded_jar_path:
      size: 0
      source: hdfs:///wmf/cache/artifacts/airflow/analytics/hdfs-tools-0.0.6-shaded.jar
      timestamp: 0
      type: FILE
      visibility: APPLICATION
  log_level: INFO
  resources:
    fpgas: 0
    gpus: 0
    memory: 1024
    vcores: 1
  script: kinit -k -t airflow.keytab airflow && java -cp hdfs_tools_shaded_jar_path:$(hadoop
    classpath) org.wikimedia.analytics.hdfstools.HDFSArchiver --source_directory "hdfs://analytics-hadoop/wmf/tmp/analytics/dump_day_of_hourly_pageviews/2023030100/user"
    --archive_file "hdfs://analytics-hadoop/wmf/data/archive/pageview/complete/2023/2023-03/pageviews-20230301-user.bz2"
    --archive_parent_umask 022 --archive_perms 644 --expected_filename_ending ".bz2"
    --check_done true --done_file "_SUCCESS"
max_attempts: 1
name: dump_day_of_hourly_pageviews__archive_day_of_pageviews_user__20230302
node_label: ''
queue: production
services: {}
tags: []
user: ''
